Herramientas Computacionales, Algoritmos y Machine Learning (HCML)
…
.pull-right[

```r
cars_tibble <- as_tibble(cars)
cars_tibble
```

```
## # A tibble: 50 x 2
##    speed  dist
##    <dbl> <dbl>
##  1     4     2
##  2     4    10
##  3     7     4
##  4     7    22
##  5     8    16
##  6     9    10
##  7    10    18
##  8    10    26
##  9    10    34
## 10    11    17
## # ... with 40 more rows
```
]

---

<p> Los beneficios de impresion <code>tibble</code> se notan más cuando se tienen bases de datos amplias, dado que solo muestran las primeras 10 filas y solo aquellas columnas que entran en el ancho de la pantalla</p>

```r
iris_tibble = as_tibble(iris)
iris_tibble
```

```
## # A tibble: 150 x 5
##    Sepal.Length Sepal.Width Petal.Length Petal.Width Species
##           <dbl>       <dbl>        <dbl>       <dbl> <fct>  
##  1          5.1         3.5          1.4         0.2 setosa 
##  2          4.9         3            1.4         0.2 setosa 
##  3          4.7         3.2          1.3         0.2 setosa 
##  4          4.6         3.1          1.5         0.2 setosa 
##  5          5           3.6          1.4         0.2 setosa 
##  6          5.4         3.9          1.7         0.4 setosa 
##  7          4.6         3.4          1.4         0.3 setosa 
##  8          5           3.4          1.5         0.2 setosa 
##  9          4.4         2.9          1.4         0.2 setosa 
## 10          4.9         3.1          1.5         0.1 setosa 
## # ... with 140 more rows
```
…
